<html> 
	<h2 align='center'>Формальная постановка задачи</h2>
	<p> 
		Множество решений <b>D</b> = {d<sub>1</sub>, d<sub>2</sub>}, где 
		d<sub>1</sub> – решение защищать посевы от заморозков; 
		d<sub>2</sub> – решение не защищать посевы от заморозков. <br/>

		Погода описывается случайной величиной <b>Y</b>, принимающей значения из множества <b>Y</b> = {y<sub>1</sub>, y<sub>2</sub>}, где 
		y<sub>1</sub> – наблюдаются заморозки; 
		y<sub>2</sub> – наблюдаетсяустойчивая теплая погода.  <br/>

		Вероятность события y<sub>i</sub> обозначим символом p<sub>i</sub>.  
		При необходимости будем использовать также символ P<sub>Y</sub>(y<sub>i</sub>). <br/>

		В зависимости от принятого фермером решения и наблюдаемой погоды можно выделить четыре исхода (альтернативы), 
		входящих во множество исходов (альтернатив) <b>A</b> = {a<sub>1</sub>, a<sub>2</sub>, a<sub>3</sub>, a<sub>4</sub>}, где
		a<sub>1</sub> – наблюдаются заморозки, однако посевы защищены, в результате посевы сохранены частично, фермер получает низкий доход;
		a<sub>2</sub> – заморозки не наблюдаются, при этом посевы защищены, в результате посевы сохранены полностью, фермерполучает средний доход;
		a<sub>3</sub> – наблюдаются заморозки, но посевы не защищены, в результате посевы погибают полностью, фермер несет большие убытки;
		a<sub>4</sub> – заморозки не наблюдаются и посевы не защищены, в результате посевы сохранены полностью, фермер получает высокий доход.  <br/><br/>  

		Каждому из возможных исходов a<sub>i</sub> поставим в соответствие ценность исхода (альтернативы) v<sub>i</sub> = v(a<sub>i</sub>), 
		значение которой определяется получаемым <br/>доходом. Для ценностей рассмотренных альтернатив справедливо следующее соотношение: 
		v<sub>4</sub> > v<sub>2</sub> > v<sub>1</sub> > v<sub>3</sub>.<br/><br/>

		<b>Дерево решений и развернутое представление лотерей:</b><br/><br/>
	</p>   
</html>